{
  "loss": {
      "optimizer": "Adam",
      "lr": 0.0005,
      "cost": "mean_squared_error",
      "activation": "tanh"
  },
  "architecture": {
      "network": {
        "dense": [
          [512, 0.2],
          [256, 0.2],
          [10, 0.0]
        ]
      }
  },
  "hyper_params": {
      "max_iter": 5,
      "batch_size": 128,
      "split_data": 20,
      "val_ratio": 0.2
  }
}
